HackeRnews - specification • hackeRnews
…
comments

The discussion in story threads is represented as system of comments. Each story has top level comments ids stored under the kids property. Each comment post can have it’s own set of comments ids under kids property (sub-comments) and so on. In order to retrieve all of the comments of a specific story, just use the get_comments function.

top_story <- get_top_stories(max_items=1)[[1]]
get_comments(top_story)
#> # A tibble: 328 x 7
#>         id deleted by      time                text            dead  parent
#>      <int> <lgl>   <chr>   <dttm>              <chr>           <lgl>  <int>
#>  1  2.15e7 FALSE   judah   2019-11-13 17:45:18 I&#x27;ve been… FALSE 2.15e7
#>  2  2.15e7 FALSE   hinkley 2019-11-13 19:04:18 You had me...<… FALSE 2.15e7
#>  3  2.15e7 FALSE   jonath… 2019-11-13 19:18:52 Brave Ads are … FALSE 2.15e7
#>  4  2.15e7 FALSE   Tremen… 2019-11-13 20:16:17 &gt;when you c… FALSE 2.15e7
#>  5  2.15e7 FALSE   justsee 2019-11-13 21:10:40 Recent cross-p… FALSE 2.15e7
#>  6  2.15e7 FALSE   leftyt… 2019-11-13 20:56:38 &gt; To me the… FALSE 2.15e7
#>  7  2.15e7 FALSE   wilkys… 2019-11-13 21:09:27 The only thing… FALSE 2.15e7
#>  8  2.15e7 FALSE   k_vi    2019-11-13 20:56:46 It&#x27;d be l… FALSE 2.15e7
#>  9  2.15e7 FALSE   cyborg… 2019-11-13 20:26:49 I already deci… FALSE 2.15e7
#> 10  2.15e7 FALSE   asdkha… 2019-11-13 20:44:13 Yea, I&#x27;d … FALSE 2.15e7
#> # … with 318 more rows
…
