Hacker News nested comments — get_comments • hackeRnews
…
      item
      item whose children (comments) will be retrieved

    Value

    dataframe of all comments under an item

    Examples

# \donttest{
story <- get_item_by_id(21499889)
comments <- get_comments(story)
comments
#> # A tibble: 23 x 7
#>         id deleted by      time                text                 dead  parent
#>      <int> <lgl>   <chr>   <dttm>              <chr>                <lgl>  <int>
#>  1  2.15e7 FALSE   macint… 2019-11-10 22:18:40 Can anyone with com… FALSE 2.15e7
#>  2  2.15e7 FALSE   Gaelan  2019-11-10 23:03:17 Disclaimer: I&#x27;… FALSE 2.15e7
#>  3  2.15e7 FALSE   thomer… 2019-11-11 00:16:30 OSM is more like a … FALSE 2.15e7
#>  4  2.15e7 FALSE   brmgb   2019-11-11 03:04:07 &gt; Can anyone wit… FALSE 2.15e7
#>  5  2.15e7 FALSE   maxeri… 2019-11-11 12:50:52 I mean, this blog p… FALSE 2.15e7
#>  6  2.15e7 FALSE   thomer… 2019-11-11 11:18:45 Minor correction: o… FALSE 2.15e7
#>  7  2.15e7 FALSE   sp8962  2019-11-11 11:49:54 OK, this is going t… FALSE 2.15e7
#>  8  2.15e7 FALSE   tmcw    2019-11-11 16:47:09 Fairly accurate! A … FALSE 2.15e7
#>  9  2.15e7 FALSE   sp8962  2019-11-12 00:12:23 &gt; iD&#x27;s posi… FALSE 2.15e7
#> 10  2.15e7 FALSE   canada… 2019-11-11 16:22:33 Excellent recap.<p>… FALSE 2.15e7
#> # … with 13 more rows
…
