HackeRnews - specification • hackeRnews
…
comments

The discussion in story threads is represented as system of comments.
Each story has top level comments ids stored under the kids
property. Each comment post can have it’s own set of comments ids under
kids property (sub-comments) and so on. In order to
retrieve all of the comments of a specific story, just use the
get_comments function.

top_story <- get_top_stories(max_items = 1)[[1]]
get_comments(top_story)
#> # A tibble: 27 × 7
#>          id deleted by            time                text          dead  parent
#>       <int> <lgl>   <chr>         <dttm>              <chr>         <lgl>  <int>
#>  1 43586402 FALSE   TechDebtDevin 2025-04-04 18:57:03 "Anyone who … FALSE 4.36e7
#>  2 43587442 FALSE   johnsutor     2025-04-04 20:47:01 "<a href=\"h… FALSE 4.36e7
#>  3 43587038 FALSE   pajamasam     2025-04-04 19:58:57 "I would rec… FALSE 4.36e7
#>  4 43587641 TRUE    NA            2025-04-04 21:11:44  NA           FALSE 4.36e7
#>  5 43586835 FALSE   janis1234     2025-04-04 19:39:50 "Book is 10 … FALSE 4.36e7
#>  6 43587454 FALSE   joshdavham    2025-04-04 20:48:07 "What other … FALSE 4.36e7
#>  7 43586580 FALSE   cubefox       2025-04-04 19:16:30 "I have read… FALSE 4.36e7
#>  8 43587450 FALSE   joshdavham    2025-04-04 20:47:31 "I haven&#x2… FALSE 4.36e7
#>  9 43587897 FALSE   grep_it       2025-04-04 21:41:01 "Thanks for … FALSE 4.36e7
#> 10 43587695 FALSE   kenjackson    2025-04-04 21:21:51 "I would&#x2… FALSE 4.36e7
#> # ℹ 17 more rows
…
